[
  {
    'name' => 'google_oauth2',
    'app_id' => {{ .Values.global.omnibus.oauthGoogleId | squote }},
    'app_secret' => ENV['OAUTH_GOOGLE_SECRET'],
    'args' => { 'access_type' => 'offline', 'approval_prompt' => '' }
  },
  {
    'name' => 'gitlab',
    'app_id' => {{ .Values.global.omnibus.oauthGitLabId | squote }},
    'app_secret' => ENV['OAUTH_GITLAB_SECRET'],
    'args' => { 'scope' => 'read_user' }
  },
  {
    'name' => 'github',
    'app_id' => {{ .Values.global.omnibus.oauthGitHubId | squote }},
    'app_secret' => ENV['OAUTH_GITHUB_SECRET'],
    'args' => { 'scope' => 'user:email' }
  },
  {
    'name' => 'twitter',
    'app_id' => {{ .Values.global.omnibus.oauthTwitterId | squote }},
    'app_secret' => ENV['OAUTH_TWITTER_SECRET']
  }
]
